-- Merging decision tree log ---
manifest
ADDED from /home/deepaksharma/AndroidStudioProjects/TALog/talogger/src/main/AndroidManifest.xml:1:1-15:12
INJECTED from /home/deepaksharma/AndroidStudioProjects/TALog/talogger/src/main/AndroidManifest.xml:1:1-15:12
INJECTED from /home/deepaksharma/AndroidStudioProjects/TALog/talogger/src/main/AndroidManifest.xml:1:1-15:12
INJECTED from /home/deepaksharma/AndroidStudioProjects/TALog/talogger/src/main/AndroidManifest.xml:1:1-15:12
INJECTED from /home/deepaksharma/AndroidStudioProjects/TALog/talogger/src/main/AndroidManifest.xml:1:1-15:12
INJECTED from /home/deepaksharma/AndroidStudioProjects/TALog/talogger/src/main/AndroidManifest.xml:1:1-15:12
INJECTED from /home/deepaksharma/AndroidStudioProjects/TALog/talogger/src/main/AndroidManifest.xml:1:1-15:12
	package
		ADDED from /home/deepaksharma/AndroidStudioProjects/TALog/talogger/src/main/AndroidManifest.xml:2:5-31
		INJECTED from /home/deepaksharma/AndroidStudioProjects/TALog/talogger/src/main/AndroidManifest.xml
		INJECTED from /home/deepaksharma/AndroidStudioProjects/TALog/talogger/src/main/AndroidManifest.xml
	android:versionName
		INJECTED from /home/deepaksharma/AndroidStudioProjects/TALog/talogger/src/main/AndroidManifest.xml
		ADDED from /home/deepaksharma/AndroidStudioProjects/TALog/talogger/src/main/AndroidManifest.xml:1:1-15:12
		INJECTED from /home/deepaksharma/AndroidStudioProjects/TALog/talogger/src/main/AndroidManifest.xml
	android:versionCode
		INJECTED from /home/deepaksharma/AndroidStudioProjects/TALog/talogger/src/main/AndroidManifest.xml
		ADDED from /home/deepaksharma/AndroidStudioProjects/TALog/talogger/src/main/AndroidManifest.xml:1:1-15:12
		INJECTED from /home/deepaksharma/AndroidStudioProjects/TALog/talogger/src/main/AndroidManifest.xml
	xmlns:android
		ADDED from /home/deepaksharma/AndroidStudioProjects/TALog/talogger/src/main/AndroidManifest.xml:1:11-69
uses-permission#android.permission.WRITE_EXTERNAL_STORAGE
ADDED from /home/deepaksharma/AndroidStudioProjects/TALog/talogger/src/main/AndroidManifest.xml:4:5-81
	android:name
		ADDED from /home/deepaksharma/AndroidStudioProjects/TALog/talogger/src/main/AndroidManifest.xml:4:22-78
uses-permission#android.permission.READ_EXTERNAL_STORAGE
ADDED from /home/deepaksharma/AndroidStudioProjects/TALog/talogger/src/main/AndroidManifest.xml:5:5-80
	android:name
		ADDED from /home/deepaksharma/AndroidStudioProjects/TALog/talogger/src/main/AndroidManifest.xml:5:22-77
application
ADDED from /home/deepaksharma/AndroidStudioProjects/TALog/talogger/src/main/AndroidManifest.xml:7:5-14:19
	android:supportsRtl
		ADDED from /home/deepaksharma/AndroidStudioProjects/TALog/talogger/src/main/AndroidManifest.xml:9:9-35
	android:allowBackup
		ADDED from /home/deepaksharma/AndroidStudioProjects/TALog/talogger/src/main/AndroidManifest.xml:8:9-35
activity#app.com.talogger.fileWrite.PermissionActivity
ADDED from /home/deepaksharma/AndroidStudioProjects/TALog/talogger/src/main/AndroidManifest.xml:10:9-13:20
	android:theme
		ADDED from /home/deepaksharma/AndroidStudioProjects/TALog/talogger/src/main/AndroidManifest.xml:12:13-53
	android:name
		ADDED from /home/deepaksharma/AndroidStudioProjects/TALog/talogger/src/main/AndroidManifest.xml:11:13-57
uses-sdk
INJECTED from /home/deepaksharma/AndroidStudioProjects/TALog/talogger/src/main/AndroidManifest.xml reason: use-sdk injection requested
INJECTED from /home/deepaksharma/AndroidStudioProjects/TALog/talogger/src/main/AndroidManifest.xml
INJECTED from /home/deepaksharma/AndroidStudioProjects/TALog/talogger/src/main/AndroidManifest.xml
INJECTED from /home/deepaksharma/AndroidStudioProjects/TALog/talogger/src/main/AndroidManifest.xml
INJECTED from /home/deepaksharma/AndroidStudioProjects/TALog/talogger/src/main/AndroidManifest.xml
	android:targetSdkVersion
		INJECTED from /home/deepaksharma/AndroidStudioProjects/TALog/talogger/src/main/AndroidManifest.xml
		ADDED from /home/deepaksharma/AndroidStudioProjects/TALog/talogger/src/main/AndroidManifest.xml
		INJECTED from /home/deepaksharma/AndroidStudioProjects/TALog/talogger/src/main/AndroidManifest.xml
	android:minSdkVersion
		INJECTED from /home/deepaksharma/AndroidStudioProjects/TALog/talogger/src/main/AndroidManifest.xml
		ADDED from /home/deepaksharma/AndroidStudioProjects/TALog/talogger/src/main/AndroidManifest.xml
		INJECTED from /home/deepaksharma/AndroidStudioProjects/TALog/talogger/src/main/AndroidManifest.xml
